INDEX VERSION 1.130+C:\fsd\fsd62\module3\workspace1\.metadata\.plugins\org.eclipse.jdt.core
2559537238.index
2782998763.index
3355708150.index
1105950464.index
126327503.index
2256529200.index
3067937448.index
2497329067.index
2187889462.index
3759676292.index
3852244655.index
2071462652.index
913027813.index
743109110.index
1562229597.index
3160486075.index
747391409.index
2653330038.index
55574900.index
401767567.index
2006079928.index
4278764599.index
560370110.index
1552878334.index
3344671394.index
4136345756.index
2898290088.index
595274568.index
3566089501.index
391610016.index
3001609419.index
667064990.index
2194716159.index
1737575566.index
3485603984.index
178841471.index
727075487.index
2758576337.index
3356319103.index
2775806397.index
585472926.index
3413869067.index
1227306570.index
3985210105.index
1153754922.index
460168611.index
1238624408.index
3312165055.index
1654932894.index
