INDEX VERSION 1.3+C:\fsd\fsd62\module3\workspace2\.metadata\.plugins\org.eclipse.wst.jsdt.core\indexes
1808943429.index
796601757.index
697512598.index
2936742295.index
2420494233.index
2889170302.index
2004729494.index
4070291634.index
