127.0.0.1 - - [28/Mar/2024:11:18:52 +0530] "GET / HTTP/1.1" 404 752
0:0:0:0:0:0:0:1 - - [28/Mar/2024:11:18:53 +0530] "GET /servletDemo1/ HTTP/1.1" 404 769
0:0:0:0:0:0:0:1 - - [28/Mar/2024:11:19:04 +0530] "GET /servletDemo1/Hi.html HTTP/1.1" 200 126
0:0:0:0:0:0:0:1 - - [28/Mar/2024:11:20:18 +0530] "GET /servletDemo1/Hi.html HTTP/1.1" 304 -
0:0:0:0:0:0:0:1 - - [28/Mar/2024:11:53:37 +0530] "GET /servletDemo1/Hi.html HTTP/1.1" 304 -
127.0.0.1 - - [28/Mar/2024:12:03:34 +0530] "GET / HTTP/1.1" 404 752
0:0:0:0:0:0:0:1 - - [28/Mar/2024:12:03:35 +0530] "GET /servletDemo1/Hi.html HTTP/1.1" 200 158
0:0:0:0:0:0:0:1 - - [28/Mar/2024:12:03:36 +0530] "GET /servletDemo1/HiServlet HTTP/1.1" 200 -
127.0.0.1 - - [28/Mar/2024:12:04:50 +0530] "GET / HTTP/1.1" 404 752
0:0:0:0:0:0:0:1 - - [28/Mar/2024:12:04:50 +0530] "GET /servletDemo1/Hi.html HTTP/1.1" 304 -
0:0:0:0:0:0:0:1 - - [28/Mar/2024:12:04:52 +0530] "GET /servletDemo1/HiServlet HTTP/1.1" 200 -
127.0.0.1 - - [28/Mar/2024:12:14:21 +0530] "GET / HTTP/1.1" 404 752
0:0:0:0:0:0:0:1 - - [28/Mar/2024:12:14:21 +0530] "GET /servletDemo1/Hi.html HTTP/1.1" 200 206
0:0:0:0:0:0:0:1 - - [28/Mar/2024:12:14:23 +0530] "GET /servletDemo1/HelloServlet HTTP/1.1" 200 -
0:0:0:0:0:0:0:1 - - [28/Mar/2024:12:14:42 +0530] "GET /servletDemo1/Hi.html HTTP/1.1" 200 218
0:0:0:0:0:0:0:1 - - [28/Mar/2024:12:14:44 +0530] "GET /servletDemo1/HelloServlet HTTP/1.1" 200 -
127.0.0.1 - - [28/Mar/2024:12:15:11 +0530] "GET / HTTP/1.1" 404 752
0:0:0:0:0:0:0:1 - - [28/Mar/2024:12:15:11 +0530] "GET /servletDemo1/Hi.html HTTP/1.1" 304 -
0:0:0:0:0:0:0:1 - - [28/Mar/2024:12:15:13 +0530] "GET /servletDemo1/HelloServlet HTTP/1.1" 200 -
0:0:0:0:0:0:0:1 - - [28/Mar/2024:12:15:57 +0530] "GET /servletDemo1/HiServlet HTTP/1.1" 200 -
127.0.0.1 - - [28/Mar/2024:12:22:06 +0530] "GET / HTTP/1.1" 404 752
0:0:0:0:0:0:0:1 - - [28/Mar/2024:12:22:07 +0530] "GET /servletDemo1/Hi.html HTTP/1.1" 304 -
0:0:0:0:0:0:0:1 - - [28/Mar/2024:12:22:15 +0530] "GET /servletDemo1/HiServlet HTTP/1.1" 200 -
0:0:0:0:0:0:0:1 - - [28/Mar/2024:12:22:19 +0530] "GET /servletDemo1/HiServlet HTTP/1.1" 200 -
0:0:0:0:0:0:0:1 - - [28/Mar/2024:12:22:23 +0530] "GET /servletDemo1/HiServlet HTTP/1.1" 200 -
0:0:0:0:0:0:0:1 - - [28/Mar/2024:12:22:27 +0530] "GET /servletDemo1/HelloServlet HTTP/1.1" 200 -
0:0:0:0:0:0:0:1 - - [28/Mar/2024:12:22:30 +0530] "GET /servletDemo1/HelloServlet HTTP/1.1" 200 -
0:0:0:0:0:0:0:1 - - [28/Mar/2024:12:22:34 +0530] "GET /servletDemo1/HelloServlet HTTP/1.1" 200 -
